{
  "actor": "Biro Diakonia Sosial",
  "dataForm": "Dokumen tercetak",
  "activity": "Membuat berkas anggota",
  "dataDictionaryCode": "DD-DDiak-012",
  "processCode": "BP-DDiak-01-06",
  "description": "Dokumen ini merupakan data anggota yang mendaftar pada program kerja dan pengembangan usuha kreatif.",
  "attributes": [
    {
      "dataType": "String",
      "length": "100",
      "description": "Nama anggota",
      "alias": "nama",
      "attributeName": "nama anggota"
    },
    {
      "dataType": "String",
      "length": "50",
      "description": "Tempat lahir",
      "alias": "tempat",
      "attributeName": "tempat lahir"
    },
    {
      "dataType": "Date",
      "length": "10",
      "description": "tanggal lahir",
      "alias": "tanggal",
      "attributeName": "tanggal lahir"
    },
    {
      "dataType": "String",
      "length": "16",
      "description": "nomor KTP",
      "alias": "-",
      "attributeName": "nomor KTP"
    },
    {
      "dataType": "String",
      "length": "255",
      "description": "Alamat jemaat/anggota yang ikut serta",
      "alias": "alamat",
      "attributeName": "alamat"
    }
  ],
  "documentName": "Data anggota",
  "relation": "DD-DDiak-006"
}