{
  "actor": "Anggota Badan Koordinasi Ekonomi Kerakyatan",
  "dataForm": "Laporan tercetak",
  "activity": "Membuat Laporan Pembentukan CUM disertai kepengurusan CUM",
  "dataDictionaryCode": "DD-DDiak-034",
  "processCode": "BP-DDiak-05-01",
  "description": "Laporan ini memuat detail tentang pembentukan CUM lengkap dengan struktur kepengurusan pada organisasi CUM tersebut.",
  "attributes": [
    {
      "dataType": "String",
      "length": "255",
      "description": "Judul laporan yang dicetak",
      "alias": "judul",
      "attributeName": "judul laporan"
    },
    {
      "dataType": "String",
      "length": "~",
      "description": "Tujuan laporan yang dicetak",
      "alias": "tujuan",
      "attributeName": "tujuan pembentukan cum"
    },
    {
      "dataType": "String[]",
      "length": "50",
      "description": "Daftar nama-nama kepengurusan CUM pada laporan yang dicetak",
      "alias": "nama",
      "attributeName": "kepengurusan cum"
    },
    {
      "dataType": "String",
      "length": "~",
      "description": "Isi laporan",
      "alias": "isi",
      "attributeName": "isi laporan"
    },
    {
      "dataType": "String",
      "length": "100",
      "description": "Pihak yang menerima ",
      "alias": "-",
      "attributeName": "diterima oleh"
    },
    {
      "dataType": "String",
      "length": "100",
      "description": "Persetujuan atau diketahui oleh pembuat keputusan biasanya berupa tanda tangan dan nama.",
      "alias": "-",
      "attributeName": "disetujui oleh"
    }
  ],
  "documentName": "Laporan Pembentukan CUM disertai kepengurusan CUM",
  "relation": "DD-DDiak-036"
}