{
  "actor": "Anggota Biro Latihan Kerja/Pelayanan Khusus",
  "dataForm": "Dokumen tercetak",
  "activity": "Membuat daftar anak jalanan yang direkrut",
  "dataDictionaryCode": "DD-DDiak-023",
  "processCode": "BP-DDiak-02-09",
  "description": "Dokumen ini berisi data anak jalanan yang masuk dalam program pembiaan anak kreatif oleh biro Latihan Kerja/Pelayanan Khusus",
  "attributes": [
    {
      "dataType": "String",
      "length": "100",
      "description": "Nama anak yang mengikuti program",
      "alias": "nama",
      "attributeName": "nama anak"
    },
    {
      "dataType": "String",
      "length": "255",
      "description": "Alamat anak",
      "alias": "alamat",
      "attributeName": "alamat anak"
    },
    {
      "dataType": "Integer",
      "length": "2",
      "description": "Umur anak yang mengikuti program",
      "alias": "umur",
      "attributeName": "umur anak"
    }
  ],
  "documentName": "Daftar anak jalanan",
  "relation": "-"
}